module go-elearning

go 1.21.5

require (
	github.com/gabriel-vasile/mimetype v1.4.2 // indirect
	github.com/go-playground/locales v0.14.1 // indirect
	github.com/go-playground/universal-translator v0.18.1 // indirect
	github.com/go-playground/validator/v10 v10.16.0 // indirect
	github.com/go-sql-driver/mysql v1.7.1 // indirect
	github.com/gorilla/securecookie v1.1.2 // indirect
	github.com/gorilla/sessions v1.2.2 // indirect
	github.com/jinzhu/inflection v1.0.0 // indirect
	github.com/jinzhu/now v1.1.5 // indirect
	github.com/leodido/go-urn v1.2.4 // indirect
	golang.org/x/crypto v0.7.0 // indirect
	golang.org/x/net v0.8.0 // indirect
	golang.org/x/sys v0.6.0 // indirect
	golang.org/x/text v0.8.0 // indirect
	gorm.io/driver/mysql v1.5.2 // indirect
	gorm.io/gorm v1.25.5 // indirect
)
